
    {

        "name": "Nike High Cut",
        "description": "For basketball and running",
        "price": 10000,
        "slots": 10,
        "isActive": true,
        "SKU": "N1234567"
    },
    {
        "name": "Addidas low cut",
        "description": "Fashion and style",
        "price": 5000,
        "Stocks": 10,
        "isActive": true,
        "SKU": "A1234567"
    }
   

]

